{
  "code": "000000",
  "message": "success",
  "success": true,
  "body": {
    "currentPage": 1,
    "pageSize": 20,
    "totalElements": 10000,
    "totalPages": 500,
    "content": [
      {
        "postId": "281147932",
        "postTitle": "【租房】[胡同] 东城鼓楼 净土胡同露台loft 位置超棒 吃喝玩乐文化艺术环绕",
        "postBody": "总共3层（包括露台） 每层15平方米 门朝南窗子朝北\n租金6000元 押金3000元 最好半年付\n水电暖气、家电家具都齐全 基本都会留下\n年后可能会很快租掉 希望年前了却一桩心愿\n祝大家新年快乐！\n一层客厅\n一层客厅\n一层客厅\n一层门厅\n一层门厅\n一层厨房\n一层卫生间\n二层卧室\n二层卧室\n二层卧室\n二层工作间\n二层工作间\n二层工作间\n二层工作间\n屋顶露台\n屋顶露台\n屋顶露台",
        "signatureId": "281147932",
        "opId": "xyhahn",
        "nickName": "XYHahn",
        "groupId": "jumei",
        "groupName": "北京租房",
        "postCreateTime": "2023-01-05 01:45:38",
        "opLatestCommentTime": "2023-01-05 01:45:38"
      },
      {
        "postId": "281102419",
        "postTitle": "四惠，四惠东，通惠家园壹线国际，主卧独卫，主次卧，月付，免押金，无任何费用",
        "postBody": "看房方便随时入住15650767000同V",
        "signatureId": "281102419",
        "opId": "264287722",
        "nickName": "努力的小男孩",
        "groupId": "beijingzufang",
        "groupName": "北京租房",
        "postCreateTime": "2023-01-04 09:45:11",
        "opLatestCommentTime": "2023-01-05 01:19:36"
      },
      {
        "postId": "281147246",
        "postTitle": "7号线10号线双井地铁站，精装修，开间。朝南，垂杨柳北里，",
        "postBody": "7号线。10号线。双井地铁站。垂杨柳北里。精装修开间  独立厨房，独立卫生间。朝南。步梯5层。  老小区，可以接受的\n甲维13943922911",
        "signatureId": "281147246",
        "opId": "218573115",
        "nickName": "草莓布丁",
        "groupId": "sweethome",
        "groupName": "北京租房",
        "postCreateTime": "2023-01-05 01:15:35",
        "opLatestCommentTime": "2023-01-05 01:15:35"
      },
      {
        "postId": "281147099",
        "postTitle": "转租传媒附近惊喜次卧小单间",
        "postBody": "关于房子: 可入住时间:2023年1月或者2月初，入住，可以商量（合约期:2022.5.5-2023.5.5） 到期后可以自行选择与房东续租。\n这个房子比较适合来京不久，相对不够稳定的小伙伴们，考虑节省租金成本临时找个交通方便的性价比高的住处，以及适合出差或者来京学习考试的伙伴们！\n位置:北京朝阳区高碑店北花园小区3号院1号楼（小区周围有各种大小超市，菜市场，传媒大学地铁） 合租:4户合租，每户1女生，其中3户用一卫生间，主卧独卫，不会出现抢厕所的情况 厨卫:厨房有燃气可以做饭，你可以随时施展你的厨艺，卫生间是大容量热水器，不会出现热水不够的情况 备注:因都是女生合租，所以房间，厨房，卫生间非常干净，所以也希望你爱干净，讲卫生。\n费用情况: 房租:1200/月 水电网燃气费:电费和网费按户均摊，水费和燃气费按人均摊，如不使用燃气可不交费 物业管理费:2/天，随时欢迎留言咨询吗，本人非中介。",
        "signatureId": "281147099",
        "opId": "44567371",
        "nickName": "薇wind",
        "groupId": "sweethome",
        "groupName": "北京租房",
        "postCreateTime": "2023-01-05 01:10:44",
        "opLatestCommentTime": "2023-01-05 01:10:44"
      },
      {
        "postId": "281146514",
        "postTitle": "16号线 农大南路 3000",
        "postBody": "离职转租\n三居室一间\n南向有电梯 具体请私信\n离职，离京 个人转租 有优惠",
        "signatureId": "281146514",
        "opId": "68503962",
        "nickName": "neil",
        "groupId": "sweethome",
        "groupName": "北京租房",
        "postCreateTime": "2023-01-05 00:50:55",
        "opLatestCommentTime": "2023-01-05 00:50:55"
      },
      {
        "postId": "281117280",
        "postTitle": "金台路地铁站 一室一厅 房东直租",
        "postBody": "地址 道家园5号楼\n一室一厅 一厨一厕 一储物间 56平米 朝南\n家具齐全：桌椅两套、衣柜、电视柜、书柜、收纳柜、沙发；\n电器更齐全：天然气、冰箱、空气炸锅、微波炉、电饭锅；\n房东直租，中介勿扰。\n入住时间：1月20日",
        "signatureId": "281117280",
        "opId": "62657011",
        "nickName": "Malalanuluba",
        "groupId": "beijingzufang",
        "groupName": "北京租房",
        "postCreateTime": "2023-01-04 15:18:50",
        "opLatestCommentTime": "2023-01-05 00:48:52"
      },
      {
        "postId": "280429660",
        "postTitle": "回龙观东大街次卧2200",
        "postBody": "小区为首开国风美唐二期，小次卧2200或带阳台的次卧2500。两个卧室都朝南，二选一出租，随时可联系看房。\n电梯房，楼层为中部的12层，阳光好。地暖式集体供暖，距离回龙观东大街地铁站200米，通勤出行都很方便。小区门口小吃一条街，两个小超市和一个大型地下超市，生活购物非常便利。小区旁边是一个小公园，可以日常溜达的需求。房子为楼主和两个同事整租的三居室，一厨一卫一厅。\n另外两个室友都是很好相处的两个小姐姐，作息规律爱干净喜欢自己做饭，没有养宠物。\n希望你也是女生，爱干净，作息规律，不带异性回来过夜。需要请联系v18135104384\n带阳台次卧2500\n带阳台次卧2500\n小次卧2200\n厨房\n卫生间",
        "signatureId": "280363482`s",
        "opId": "251391199",
        "nickName": "狐狸",
        "groupId": "516673",
        "groupName": "北京租房",
        "postCreateTime": "2022-12-20 14:36:09",
        "opLatestCommentTime": "2023-01-05 00:44:07"
      },
      {
        "postId": "280983285",
        "postTitle": "15号线附近求租",
        "postBody": "想租15号线附近的开间或者主卧独卫\n望京或者顺义这边的房子！！我在望京上班，海淀离我太远了不考虑海淀那边！！\n预算3000左右\n不看\uD83C\uDE36️中介费的 有房联系我",
        "signatureId": "280983285`s",
        "opId": "229918501",
        "nickName": "冰行行头",
        "groupId": "zhufang",
        "groupName": "北京无中介租房",
        "postCreateTime": "2023-01-01 18:27:07",
        "opLatestCommentTime": "2023-01-05 00:36:09"
      },
      {
        "postId": "280979643",
        "postTitle": "个人转租，回龙观新村西区厅隔，朝南带落地窗，2500元/月，近快手，小米，百度，科技园，13号线西二旗站附近，随时入住",
        "postBody": "【转租】回龙观新村西区厅隔，朝南带落地窗，随时入住。\n点击查看位置\n【价格】2500/月，押一付三，可做饭，除水电燃气外无其他费用。明年5月底到期，到期后可续租。\n【室友】主卧男生一个人住，互联网公司员工，事少安静，次卧现在没人住。\n【配套】小区电瓶车可充电，汽车停车位充足。附近有昌发展购物中心，盒马、永辉、电影院。\n【看房时间】工作日晚上，节假日或周末。\n【电话/微信】：13163387615",
        "signatureId": "280979643",
        "opId": "55416524",
        "nickName": "parrzhang",
        "groupId": "zhufang",
        "groupName": "北京无中介租房",
        "postCreateTime": "2023-01-01 16:53:25",
        "opLatestCommentTime": "2023-01-05 00:32:21"
      },
      {
        "postId": "281145646",
        "postTitle": "九龙山地铁旁小单间月租1600，免押金",
        "postBody": "九龙山首城国际小区小单间，限女生，隔壁住的也是女生，所以不能接待男性。门口就是阳台，有独立的衣柜书桌和一张单人床及床头柜等，公共区域有洗衣机，冰箱，微波炉等，小区绿化很好，对面有家乐福和合生汇，也有很多24小时便利店，离地铁九龙山站300米，月租金1600元，不用押金，有保洁阿姨定期打扫很干净，希望您也是爱干净的伙伴。房东直租，照片都是实拍图片。有意私信联系",
        "signatureId": "281145646",
        "opId": "214297329",
        "nickName": "趣致",
        "groupId": "sweethome",
        "groupName": "北京租房",
        "postCreateTime": "2023-01-05 00:26:48",
        "opLatestCommentTime": "2023-01-05 00:26:48"
      },
      {
        "postId": "281145383",
        "postTitle": "转租  次卧带阳台  大望路soho现代城3800元",
        "postBody": "非中介，个人转租，无中介费！\n非中介，个人转租，无中介费！\n非中介，个人转租，无中介费！\n因为工作调动，原本公司在大望路，我这刚租一个多月，公司搬丰台了，我这人又懒不愿意在路程上浪费时间，只能转了\n房子是四居两卫，跟房东签合同，房东人很好，平时维修都很及时，而且同意转租，水电燃与室友均摊，其他室友全女生，正常作息，大家超友好。\n当时我看上这间房子就是看好这个阳台，真的很棒，可以晾衣服可以做个书房，具体怎么用你自己可以设计下，而且房间空间也不小，房子朝东\n想不起来在介绍什么了，有什么问题私信留言吧！",
        "signatureId": "281145383",
        "opId": "256234320",
        "nickName": "兜班",
        "groupId": "sweethome",
        "groupName": "北京租房",
        "postCreateTime": "2023-01-05 00:20:43",
        "opLatestCommentTime": "2023-01-05 00:20:43"
      },
      {
        "postId": "281145332",
        "postTitle": "转租大望路soho现代城阳台次卧 3800元",
        "postBody": "非中介，个人转租，无中介费！\n非中介，个人转租，无中介费！\n非中介，个人转租，无中介费！\n因为工作调动，原本公司在大望路，我这刚租一个多月，公司搬丰台了，我这人又懒不愿意在路程上浪费时间，只能转了\n房子是四居两卫，跟房东签合同，房东人很好，平时维修都很及时，而且同意转租，水电燃与室友均摊，其他室友全女生，正常作息，大家超友好。\n当时我看上这间房子就是看好这个阳台，真的很棒，可以晾衣服可以做个书房，具体怎么用你自己可以设计下，而且房间空间也不小，房子朝东\n想不起来在介绍什么了，有什么问题私信留言吧！",
        "signatureId": "281145332",
        "opId": "256234320",
        "nickName": "兜班",
        "groupId": "jumei",
        "groupName": "北京租房",
        "postCreateTime": "2023-01-05 00:19:45",
        "opLatestCommentTime": "2023-01-05 00:19:45"
      },
      {
        "postId": "281120658",
        "postTitle": "分租单间 大望路SOHO现代城小区 国贸 CBD商圈  精装修",
        "postBody": "一、房屋基本概况\n1.业主自用，豪华精装修，朝东全景户型\n2.室内配置：全装全配（宽带，热水器、空调、冰箱、洗衣机、电视机等）\n3.看房时间：提前电话预约即可看房\n二、周边配套情况\n1、交通发达：地铁大望路B口出来就是，周围公交站点很多，出行便利；\n2、小区环境：小区内有大量绿化，不仅美化环境还有利于身心健康；\n3、房屋装修：精装修，干净整洁，拎包入住；\n对租户的要求：\n1、朝九晚五正常工作的上班族或学生，年龄25-45优先，无性别限制；\n2、禁止饲养任何动物；\n3、禁止除租客以外的人频繁留宿、转租、分租或非法活动\n次卧4900元\n电话：13910843284",
        "signatureId": "281120658",
        "opId": "211001942",
        "nickName": "Limin",
        "groupId": "beijingzufang",
        "groupName": "北京租房",
        "postCreateTime": "2023-01-04 16:31:35",
        "opLatestCommentTime": "2023-01-05 00:16:26"
      },
      {
        "postId": "281135758",
        "postTitle": "2400-潘家园东里主卧出租—地铁10号线 男女不限  限住1人",
        "postBody": "2400元潘家园个人两居朝南主卧出租－10号线-男女不限（限住1人）\n\n地理位置：地铁10号线-潘家园站A口出走路7分钟\n 1. 房子介绍：正规两居室，主卧出租房间大概17平左右房间带一个阳台，阳光充足，家电齐全，大床。厨房，洗手间共用。 \n2. 随时可入住,押1付3,房租2400元/月\n3.下班后及周末可约时间看房，\n4. 租房要求：限1人住（男女不限），从房东手里直租，合同至少签一年。\n5.电梯房10层，目前房子住了两人，姐弟\n联系人：苏女士 微信amyli667788",
        "signatureId": "281135758",
        "opId": "196017268",
        "nickName": "^O^",
        "groupId": "beijingzufang",
        "groupName": "北京租房",
        "postCreateTime": "2023-01-04 21:28:22",
        "opLatestCommentTime": "2023-01-05 00:11:46"
      },
      {
        "postId": "281144682",
        "postTitle": "找舍友｜ 亮马桥附近精装2室找男生合租",
        "postBody": null,
        "signatureId": "281144682",
        "opId": "78396001",
        "nickName": "hanyang",
        "groupId": "beijinghezu",
        "groupName": "北京合租",
        "postCreateTime": "2023-01-05 00:05:07",
        "opLatestCommentTime": "2023-01-05 00:05:07"
      },
      {
        "postId": "280963447",
        "postTitle": "望京两居室整租",
        "postBody": "望京银领国际，两居室整租，宽敞舒适，住起来十分chill，地铁就在小区对面，周边商超好几个，适合在望京工作的朋友。",
        "signatureId": "280963447",
        "opId": "48624306",
        "nickName": "死较真儿",
        "groupId": "zhufang",
        "groupName": "北京无中介租房",
        "postCreateTime": "2023-01-01 09:44:56",
        "opLatestCommentTime": "2023-01-04 23:58:35"
      },
      {
        "postId": "281116970",
        "postTitle": "租户转租 六号线 十里堡 两居室",
        "postBody": null,
        "signatureId": "281116970`s",
        "opId": "218278246",
        "nickName": "M\uD83C\uDF3F",
        "groupId": "beijingzufang",
        "groupName": "北京租房",
        "postCreateTime": "2023-01-04 15:13:08",
        "opLatestCommentTime": "2023-01-04 23:53:46"
      },
      {
        "postId": "281143252",
        "postTitle": null,
        "postBody": null,
        "signatureId": "281143252",
        "opId": "243932499",
        "nickName": "Li",
        "groupId": "510312",
        "groupName": "北京朝阳租房",
        "postCreateTime": "2023-01-04 23:36:02",
        "opLatestCommentTime": "2023-01-04 23:45:21"
      },
      {
        "postId": "281143623",
        "postTitle": "京华苑，马家堡东路92号，离角门东地铁站100米。\n个人出租，免中介费",
        "postBody": "住房出租\n京华苑，马家堡东路92号，离角门东地铁站100米。\n个人出租，免中介费，中介勿扰。\n房子76平，两室一厅，两个卧室都是阳面。家电、家居齐全，可直接入住。\n短期出租，价格低于市面价格，4500元/元。2月15日至4月底，5月或6月另作他用。",
        "signatureId": "281143623",
        "opId": "208939816",
        "nickName": "刘涛",
        "groupId": "423071",
        "groupName": "北京房东直租~租房无中介~",
        "postCreateTime": "2023-01-04 23:43:26",
        "opLatestCommentTime": "2023-01-04 23:43:26"
      },
      {
        "postId": "280977532",
        "postTitle": "个人转租｜花园桥地铁站2800/月",
        "postBody": "\uD83C\uDFE0位置：\n劳动关系学院家属院\n6号线花园桥站步10分钟\n\t\n\uD83D\uDECF️房源情况：\n三居室 一厨一卫 转租北次卧 12平米\n三楼 有电梯\n家具全新 可做饭 配洗衣机 灶台 空调\n\t\n\uD83D\uDE03室友：\n仅一名男性室友，单身，央企，工作稳定，作息规律，不抽烟，无不良嗜好。\n\t\n\uD83D\uDCB0：2900/月 无中介费 无服务费 可月付  燃气水电费2人平分\n\t\n希望你 工作稳定 可长租 爱干净 仅一人入住 不养宠物",
        "signatureId": "280977532",
        "opId": "90169180",
        "nickName": "爱兔猛男",
        "groupId": "zhufang",
        "groupName": "北京无中介租房",
        "postCreateTime": "2023-01-01 15:59:08",
        "opLatestCommentTime": "2023-01-04 23:42:44"
      }
    ],
    "execSpendTime": "0.018371832"
  }
}