{
  "code": "000000",
  "message": "success",
  "success": true,
  "body": {
    "currentPage": 1,
    "pageSize": 20,
    "totalElements": 5154,
    "totalPages": 258,
    "content": [
      {
        "postId": "281147216",
        "postTitle": "出租南山中心区1房1厅家具齐全拎包入住2500元",
        "postBody": "9号线11号线12号线均可到达，V:icy682379",
        "signatureId": "281147216",
        "opId": "246711452",
        "nickName": "豆友6043231775",
        "groupId": "498004",
        "groupName": "深圳南山租房团",
        "postCreateTime": "2023-01-05 01:14:30",
        "opLatestCommentTime": "2023-01-05 01:14:30"
      },
      {
        "postId": "281146554",
        "postTitle": "龙华&光明 民乐翠园小区独栋三房\n大次卧帳租1300元\n｜近梅林关雅宝南坑｜可养猫",
        "postBody": "\uD83D\uDCCD位置：民乐翠园16栋D单元，距离地铁4/6/10号线都不超过1km，出门很方便\n楼下两个菜鸟驿站、快递超市，外卖都可以送上门，小区环境安静，旁边就是民乐村，商超饮食都很多十分便利，由于这一栋是这个小区的高立独栋，所以不仅安静进出人流量也少，采光很好，阳光全天在线☀️\n\uD83C\uDFE0 房子：房子为三房一厅合租房，转租大次卧，房间隔音好，有厨房和卫生间，十分干净整洁，室友很好相处，楼主因为工作原因要搬走；可养猫猫\uD83D\uDC08‍⬛，客厅很大，配套有绿植沙发电视机吊椅都很干净；\n\uD83E\uDE91配床、书桌、柜子、沙发、茶几、冰箱、洗衣机\n\uD83D\uDCB0：1300租金 民水民电 其他费用平摊很少\n\uD83D\uDCC3 可入住时间：年前，入住和主卧室友签约\n联系方式：微信 Vliziaiz2021\n随时都可看房\n个人转租，非诚/中介勿扰\n\uD83D\uDCF7 房间现状（个人在住，还没有收拾好，请见谅哦～）：\n进门处\n厨房，里面有小阳台\n大阳台\n饭厅\n客厅\n卫生间\n书桌\n房间全景，带飘窗\n床",
        "signatureId": "281146554",
        "opId": "150899079",
        "nickName": "我在进行呢",
        "groupId": "648928",
        "groupName": "深圳转租",
        "postCreateTime": "2023-01-05 00:52:54",
        "opLatestCommentTime": "2023-01-05 00:52:54"
      },
      {
        "postId": "281146262",
        "postTitle": "桃园地铁口常丰花园二房次卧转租",
        "postBody": "由于工作调整，其中一间房要转租。\n位置：南山区桃园地铁站，常丰花园。 大厦前无遮挡，大阳台，光线充足，无鼠害无蟑螂\n周围：天虹商场、欢乐颂商场、南山图书馆、南山博物馆、南山文体中心\n交通：桃园地铁站，距离地铁口步行5分钟左右，不到500米。且小区口近公交站\n水电：民水民电\n优惠：宽带免费送，包所有家具，拎包入住，两压一租，租金2400元/月，可小刀\n可入住时间：1月15号到1月底\n有意者：微信lxy505245670约看房。 最好是晚上或者周末，白天都在上班\n备注：房子是两房一厅，另外一个是女生，所以必须找女舍友，另外还有一只布偶猫咪。希望找爱猫咪，干净安静的女生同住",
        "signatureId": "281146262",
        "opId": "197039290",
        "nickName": "鹏崽里",
        "groupId": "498004",
        "groupName": "深圳南山租房团",
        "postCreateTime": "2023-01-05 00:43:50",
        "opLatestCommentTime": "2023-01-05 00:43:50"
      },
      {
        "postId": "281145570",
        "postTitle": "个人转租，岗厦地铁口，大单间采光好，1900",
        "postBody": "因回家过年，年后有新安排，不回深圳了。转租一间整租单间，租金1900。\n房子是在会展中心旁边的岗厦，很适合劳累一天回来休息的上班族居住。\n周边生活设施齐全，交通便利。\n重新跟房东签合同\n其他的就不一一介绍了，有兴趣的朋友欢迎联系我看房。微信13480628402\n下面就是房间照片了(不太会拍)",
        "signatureId": "281145570",
        "opId": "254483387",
        "nickName": "楠楠睡了",
        "groupId": "SZhouse",
        "groupName": "深圳租房",
        "postCreateTime": "2023-01-05 00:24:52",
        "opLatestCommentTime": "2023-01-05 00:24:52"
      },
      {
        "postId": "281141647",
        "postTitle": "南山西丽的一房一厅小区房个人转租，月租3000/月，40平左右，附近有茶光、西丽、留仙洞三地铁",
        "postBody": null,
        "signatureId": "281141647",
        "opId": "164969342",
        "nickName": "BLESS思",
        "groupId": "106955",
        "groupName": "深圳租房团",
        "postCreateTime": "2023-01-04 23:04:51",
        "opLatestCommentTime": "2023-01-05 00:10:30"
      },
      {
        "postId": "281142710",
        "postTitle": "转租｜宝安福永泊寓转租 房租1008元/月",
        "postBody": "工作原因需要搬家了，福永泊寓大单间转租，\n房租1008元每月，电费0.7元/度，水5.6元/吨\n民水民电价格实惠，有空调。洗衣机冰箱自己买的，需要可以转让，或者我搬走也可以。\n环境安静 4楼 每层4户\n需要的联系13998534900",
        "signatureId": "281142710",
        "opId": "82249710",
        "nickName": "Jessica",
        "groupId": "106955",
        "groupName": "深圳租房团",
        "postCreateTime": "2023-01-04 23:25:03",
        "opLatestCommentTime": "2023-01-05 00:01:10"
      },
      {
        "postId": "281143733",
        "postTitle": "个人转租 翻身站200m2200押二付一",
        "postBody": "工作原因转租，有意向的朋友评论私信都\uD83C\uDE51 \n\n费用：2200+管理费100，押二付一，和房东直签，无中介费。 房间设施：很齐全。冰箱洗衣机空调，24h热水，超大容量衣柜，梳妆台。房东就住楼顶，有事随叫随到。电梯房，五楼。 采光：本北方人比较看重的一点，所以当时特意选的必须有阳光的房间。早上和上午都会有阳光照进来，房间不会潮！！ 优势：离地铁站超级近，我之所以租这个房子最大原因就是这一点，两分钟就能到，最热的夏天还没来得及出汗就到了！！！ 非常适合南山宝安上班的打工人~~ 且公寓楼位于社区中心位置，不靠马路，比较安静。",
        "signatureId": "281143733",
        "opId": "244519149",
        "nickName": "Heyyo",
        "groupId": "648928",
        "groupName": "深圳转租",
        "postCreateTime": "2023-01-04 23:45:39",
        "opLatestCommentTime": "2023-01-04 23:51:31"
      },
      {
        "postId": "281143754",
        "postTitle": "宝安翻身个人转租｜2200元｜地铁站200m，超近！",
        "postBody": "工作原因转租，有意向的朋友评论私信都\uD83C\uDE51 \n\n费用：2200+管理费100，押二付一，和房东直签，无中介费。 房间设施：很齐全。冰箱洗衣机空调，24h热水，超大容量衣柜，梳妆台。房东就住楼顶，有事随叫随到。电梯房，五楼。 采光：本北方人比较看重的一点，所以当时特意选的必须有阳光的房间。早上和上午都会有阳光照进来，房间不会潮！！ 优势：离地铁站超级近，我之所以租这个房子最大原因就是这一点，两分钟就能到，最热的夏天还没来得及出汗就到了！！！ 非常适合南山宝安上班的打工人~~ 且公寓楼位于社区中心位置，不靠马路，比较安静。",
        "signatureId": "281143754",
        "opId": "244519149",
        "nickName": "Heyyo",
        "groupId": "106955",
        "groupName": "深圳租房团",
        "postCreateTime": "2023-01-04 23:46:11",
        "opLatestCommentTime": "2023-01-04 23:50:36"
      },
      {
        "postId": "281134539",
        "postTitle": "深圳宝安1/11号双地铁线，香缇湾花园，超大主卧带独立卫生间！超值快来看！",
        "postBody": "个人转租！无中介费！免费看房！中高楼层稀缺房源，主卧南北通透！空间非常大！阳光和通风都非常好！主卧独立卫生间空间大！可以轻松放下浴缸\uD83D\uDEC0小区进出门需刷卡，治安环境安全系数高！欢迎大家来看房联系方式18578240712微信同号",
        "signatureId": "281134539",
        "opId": "222104732",
        "nickName": "遇见",
        "groupId": "szsh",
        "groupName": "深圳租房",
        "postCreateTime": "2023-01-04 21:07:29",
        "opLatestCommentTime": "2023-01-04 23:36:16"
      },
      {
        "postId": "281143037",
        "postTitle": "南山登良地铁口次卧出租",
        "postBody": "招商名仕2居室75平的房子，次卧出租，房子是自如2.0的，因本人一人住觉得太空，所以想出租次卧，房子朝南，客厅很大，22年6月刚装修的房子，距离地铁口登良D出口400米，周围超市，菜市场等生活配套设施非常齐全，小区虽然是2003年的，但是非常干净且安静，绿化面积也比较好，不像很多老小区脏乱差。\n价格：3800/月（此价格包水电物业管理费燃气费等一切费用）有诚意者且人不错，可以适当降低费用，中介勿扰！\n本人从事短视频行业，爱干净，喜欢运动，希望另外一个室友也是爱干净的人，我会经常打扫卫生。有意者可加v：jiazevip或留言\n客厅一部分\n封闭式阳台\n厨房\n次卧\n次卧，新的，没人住过，非常干净\n卫生间\n平面图，圈出来的是次卧",
        "signatureId": "281143037",
        "opId": "150191694",
        "nickName": "未过期的小朋友",
        "groupId": "598241",
        "groupName": "深圳南山租房",
        "postCreateTime": "2023-01-04 23:31:23",
        "opLatestCommentTime": "2023-01-04 23:36:00"
      },
      {
        "postId": "281142986",
        "postTitle": "单间和一房一厅出租",
        "postBody": "\uD83C\uDFE0萨米医院对面电梯公寓招租\uD83C\uDFE0\n距离百泰珠宝大厦3.6公里、中芯国际、荣耀产业园、亚迪三村、竹坑工业区、萨米国际医疗中心、燕子岭社区、24小时热水、免费停车！\uD83D\uDE97\n一房一厅没有阳台：1580元\n一房一厅带阳台：1680元\n电梯房单间：1100元\n小单间：1280元\n大单间：1380元\n可以加我发视频17620344668",
        "signatureId": "281142986",
        "opId": "255494139",
        "nickName": "豆友M5HalIr6GY",
        "groupId": "pszf",
        "groupName": "深圳坪山租房(推荐度★★★★★)",
        "postCreateTime": "2023-01-04 23:30:32",
        "opLatestCommentTime": "2023-01-04 23:30:32"
      },
      {
        "postId": "281142943",
        "postTitle": "福永泊寓转租1008元/月",
        "postBody": "工作原因需要搬家了，福永泊寓大单间转租，\n房租1008元每月，电费0.7元/度，水5.6元/吨\n民水民电价格实惠，有空调。洗衣机冰箱自己买的，需要可以转让，或者我搬走也可以。\n环境安静 4楼 每层4户\n需要的联系13998534900",
        "signatureId": "281142943",
        "opId": "82249710",
        "nickName": "Jessica",
        "groupId": "623097",
        "groupName": "深圳租房团V",
        "postCreateTime": "2023-01-04 23:29:38",
        "opLatestCommentTime": "2023-01-04 23:29:38"
      },
      {
        "postId": "281142878",
        "postTitle": "宝体西城雅筑小次卧",
        "postBody": "宝体西城雅筑三室一厅合租，三人合租，均为本科学历，作息规律，工作稳定，无不良嗜好，很好相处。因一室友工作调动，将于1月中旬左右搬出，小次卧空闲，另两名室友为90后女生，想重新找一个女性室友。\n\n家具齐全，民水民电，也可做饭，拎包入住。交通便利，靠近宝安体育馆，跑步运动方便，小区在妇幼保健医院旁边，靠近地铁宝体站与宝安中心站，楼下便有公交车站，周边配套设施齐全，环境安静宜居。\n\n购物方便，距离沃尔玛超市四百米，距离壹方城购物中心或大仟里也均在一公里左右。小次卧一千五左右。经济实惠，可联系随时看房。无中介费。物业很棒。欢迎咨询。\n看房可联系15102040647（微信同号）",
        "signatureId": "281142878",
        "opId": "152603027",
        "nickName": "3A87ゆ╯ *",
        "groupId": "szsh",
        "groupName": "深圳租房",
        "postCreateTime": "2023-01-04 23:28:35",
        "opLatestCommentTime": "2023-01-04 23:28:35"
      },
      {
        "postId": "281142776",
        "postTitle": "福永转租｜泊寓房租1008元/月",
        "postBody": "工作原因需要搬家了，福永泊寓大单间转租，\n房租1008元每月，电费0.7元/度，水5.6元/吨\n民水民电价格实惠，有空调。洗衣机冰箱自己买的，需要可以转让，或者我搬走也可以。\n环境安静 4楼 每层4户\n需要的联系13998534900",
        "signatureId": "281142776",
        "opId": "82249710",
        "nickName": "Jessica",
        "groupId": "653968",
        "groupName": "深圳宝安租房",
        "postCreateTime": "2023-01-04 23:26:46",
        "opLatestCommentTime": "2023-01-04 23:26:46"
      },
      {
        "postId": "281142562",
        "postTitle": "南山区桃园站 两房一厅次卧招租 2750 女 可短租",
        "postBody": "1、房子情况：南山区中心的桃花园小区，步梯位于8楼，格局为两房一厅一厨一卫大阳台，朝南，房子总面积约80平，次卧10余平，1.5米床两扇窗。\n2、交通设施及周围环境：地理位置很好！\n地铁：楼下1分钟步行内有桃园地铁站B口，1号线和12号线\n公交：南山文体中心公交站和市六医院公交站\n步行：5分钟步行内有南山人民医院、超级猩猩、钱大妈、南山文体中心、南山图书馆，步行路程内有南头古城、荔香公园等。周边餐饮包括冬阴功、鸟剑居酒屋、顺德公、汉堡王、遇见小面等等。\n3、  入住时间和费用：最快2023年1月8日可入住，可商议推迟至年后。2750每月。民水民电，网费均摊。每个月5号交房租，押二付一。可以短租至2023年4月5日，亦可连年续租。\n4、联系方式：微信号：m_Alicia_Yu，请备注“豆瓣租房”，周末或工作日晚上可看房，具体私聊",
        "signatureId": "281142562",
        "opId": "81005024",
        "nickName": "发条羊",
        "groupId": "szsh",
        "groupName": "深圳租房",
        "postCreateTime": "2023-01-04 23:22:27",
        "opLatestCommentTime": "2023-01-04 23:22:27"
      },
      {
        "postId": "281142499",
        "postTitle": "横岗120平转租",
        "postBody": "120平左右，四房两厅一厨一卫，双阳台，空房整租，适合一家人居住。\n①房租2500，押一付一\n②水6元一吨，电1块3一度\n离横岗地铁站2.8公里，附近是莘塘村公交站\n地理位置横岗莘塘村东区，电话和v：15013526022",
        "signatureId": "281142499",
        "opId": "246433906",
        "nickName": "豆友mLW12RV194",
        "groupId": "548117",
        "groupName": "深圳转租",
        "postCreateTime": "2023-01-04 23:21:02",
        "opLatestCommentTime": "2023-01-04 23:21:02"
      },
      {
        "postId": "281142452",
        "postTitle": "南山区桃园站 两房一厅次卧招租 2750 女 可短租",
        "postBody": "1、房子情况：南山区中心的桃花园小区，步梯位于8楼，格局为两房一厅一厨一卫大阳台，朝南，房子总面积约80平，次卧10余平，1.5米床两扇窗。\n2、交通设施及周围环境：地理位置很好！\n地铁：楼下1分钟步行内有桃园地铁站B口，1号线和12号线\n公交：南山文体中心公交站和市六医院公交站\n步行：5分钟步行内有南山人民医院、超级猩猩、钱大妈、南山文体中心、南山图书馆，步行路程内有南头古城、荔香公园等。周边餐饮包括冬阴功、鸟剑居酒屋、顺德公、汉堡王、遇见小面等等。\n3、  入住时间和费用：最快2023年1月8日可入住，可商议推迟至年后。2750每月。民水民电，网费均摊。每个月5号交房租，押二付一。可以短租至2023年4月5日，亦可连年续租。\n4、联系方式：微信号：m_Alicia_Yu，请备注“豆瓣租房”，周末或工作日晚上可看房，具体私聊",
        "signatureId": "281142452",
        "opId": "81005024",
        "nickName": "发条羊",
        "groupId": "498004",
        "groupName": "深圳南山租房团",
        "postCreateTime": "2023-01-04 23:20:01",
        "opLatestCommentTime": "2023-01-04 23:20:01"
      },
      {
        "postId": "281142450",
        "postTitle": "横岗120平转租",
        "postBody": "120平左右，四房两厅一厨一卫，双阳台，空房整租，适合一家人居住。\n①房租2500，押一付一\n②水6元一吨，电1块3一度\n离横岗地铁站2.8公里，附近是莘塘村公交站\n地理位置横岗莘塘村东区，电话和v：15013526022",
        "signatureId": "281142450",
        "opId": "246433906",
        "nickName": "豆友mLW12RV194",
        "groupId": "648928",
        "groupName": "深圳转租",
        "postCreateTime": "2023-01-04 23:19:56",
        "opLatestCommentTime": "2023-01-04 23:19:56"
      },
      {
        "postId": "281124291",
        "postTitle": "荔林、南油、前海、南头、超值三居室转租6500",
        "postBody": "因本人出国，转租一套三居室，加上化妆室是四居，两厅一卫。\n位置在雷圳碧榕湾海景花园，靠近前海，旁有立桥城购物中心，内有游泳池。小区绿化很好很适合溜娃，散步。\n1.19-4.9我补贴房租，每个月6500，原价每个月8200。",
        "signatureId": "281124291",
        "opId": "80127930",
        "nickName": "Bo",
        "groupId": "szsh",
        "groupName": "深圳租房",
        "postCreateTime": "2023-01-04 17:47:19",
        "opLatestCommentTime": "2023-01-04 23:18:43"
      },
      {
        "postId": "281142374",
        "postTitle": "前海花园主卧单间出租。临近1号线大新站。近科技园，限女生。",
        "postBody": "坐标：前海花园一期，紧靠大新地铁口b口。从家出门到地铁站步行5分钟。\n小区配套方便，500m内有菜鲜生、钱妈妈等日常生鲜菜品采购店，小区配套的社康卫生站，药店、早餐店、人人乐超市等。\n租赁状态：2023年2月起可租。如需1月起租，亦可协商时间。价格2400元每月（水费、电费、网络费、电视费、燃气费全包），押二付一。\n限女生租赁\n希望新室友爱干净，作息健康，职业稳定\n房间有空调，公共区有厨房【燃气灶、配抽油烟机、消毒碗柜】，冰箱洗衣机，超大阳台，客厅有电视沙发餐桌\n联系方式：微信missrachelx，验证留言：豆瓣租房。（中介勿扰）",
        "signatureId": "281142374",
        "opId": "1826467",
        "nickName": "馋灯懒鱼",
        "groupId": "498004",
        "groupName": "深圳南山租房团",
        "postCreateTime": "2023-01-04 23:18:41",
        "opLatestCommentTime": "2023-01-04 23:18:41"
      }
    ],
    "execSpendTime": "0.017850983"
  }
}